2 0.25
0 0.25
-1 0.25
0 0.25
3 0.5
-100 0.5
5 0.25
3 0.25
2 0.25
3 0.25
7 0.5
-100 0.5
8 0.25
7 0.25
6 0.25
7 0.25
14 0.25
12 0.25
11 0.25
12 0.25
14 0.25
12 0.25
10 0.25
12 0.25
15 1.0
12 0.5
15 0.5
14 0.5
12 0.5
10 0.5
12 0.5
14 0.5
12 0.5
10 0.5
12 0.5
14 0.5
12 0.5
10 0.5
12 0.5
7 1
2 0.25
0 0.25
-1 0.25
0 0.25
3 0.5
-100 0.5
5 0.25
3 0.25
2 0.25
3 0.25
7 0.5
-100 0.5
8 0.25
7 0.25
6 0.25
7 0.25
14 0.25
12 0.25
11 0.25
12 0.25
14 0.25
12 0.25
10 0.25
12 0.25
15 1.0
12 0.5
15 0.5
14 0.5
12 0.5
10 0.5
12 0.5
14 0.5
12 0.5
10 0.5
12 0.5
14 0.5
12 0.5
10 0.5
12 0.5
7 1
7 0.5
8 0.5
10 0.5
10 0.5
12 0.25
10 0.25
8 0.25
7 0.25
5 0.5
5 0.5
7 0.5
8 0.5
10 0.5
10 0.5
12 0.25
10 0.25
8 0.25
7 0.25
5 1
3 0.5
5 0.5
7 0.5
7 0.5
8 0.25
7 0.25
5 0.25
3 0.25
2 0.5
2 0.5
3 0.5
5 0.5
7 0.5
7 0.5
8 0.25
7 0.25
5 0.25
3 0.25
2 1
2 0.25
0 0.25
-2 0.25
0 0.25
3 0.5
-100 0.5
5 0.25
3 0.25
2 0.25
3 0.25
7 0.5
-100 0.5
8 0.25
7 0.25
6 0.25
7 0.25
14 0.25
12 0.25
11 0.25
12 0.25
14 0.25
12 0.25
10 0.25
12 0.25
15 1
12 0.5
14 0.5
15 0.5
14 0.5
12 0.5
11 0.5
12 0.5
7 0.5
8 0.5
5 0.5
3 1
2 0.75
0 0.125
2 0.125
0 1
7 0.5
8 0.5
10 0.5
10 0.5
12 0.25
10 0.25
8 0.25
7 0.25
5 0.5
5 0.5
7 0.5
8 0.5
10 0.5
10 0.5
12 0.25
10 0.25
8 0.25
7 0.25
5 1
3 0.5
5 0.5
7 0.5
7 0.5
8 0.25
7 0.25
5 0.25
3 0.25
2 0.5
2 0.5
3 0.5
5 0.5
7 0.5
7 0.5
8 0.25
7 0.25
5 0.25
3 0.25
2 1
2 0.25
0 0.25
-2 0.25
0 0.25
3 0.5
-100 0.5
5 0.25
3 0.25
2 0.25
3 0.25
7 0.5
-100 0.5
8 0.25
7 0.25
6 0.25
7 0.25
14 0.25
12 0.25
11 0.25
12 0.25
14 0.25
12 0.25
10 0.25
12 0.25
15 1
12 0.5
14 0.5
15 0.5
14 0.5
12 0.5
11 0.5
12 0.5
7 0.5
8 0.5
5 0.5
3 1
2 0.75
0 0.125
2 0.125
0 1
