1 0.5
0 0.5
-1 0.5
-3 0.5
-2 1
-2 0.5
2 0.5
1 1
0 1
-1 1
-1 0.5
-1 0.5
1 1
0 0.5
-1 0.5
-2 1
-2 0.5
7 0.5
6 0.5
7 0.5
6 0.5
7 0.5
-2 1
-2 0.5
7 0.5
6 0.5
7 0.5
6 0.5
7 0.5
0 0.5
0 0.5
0 0.5
0 0.5
2 0.5
2 0.5
2 0.5
2 0.5
1 0.5
1 0.5
1 0.5
1 0.5
4 0.5
4 0.5
4 0.5
4 0.5
5 0.5
5 0.5
5 0.5
5 0.5
5 0.5
5 0.5
5 0.5
5 0.5
5 0.5
5 0.5
5 0.5
5 0.5
1 0.5
0 0.5
-1 0.5
-3 0.5
-2 1
-2 0.5
2 0.5
1 1
0 1
-1 1
-1 0.5
-1 0.5
1 1
0 0.5
-1 0.5
-2 1
-2 0.5
7 0.5
6 0.5
7 0.5
6 0.5
7 0.5
-2 1
-2 0.5
7 0.5
6 0.5
7 0.5
6 0.5
7 0.5

